{
    "agent": {
        "n_inputs": 20,
        "n_outputs": 9,
        "learning_rate": 0.0005,
        "max_epsilon": 1.0,
        "min_epsilon": 0.05,
        "gamma": 0.99,
        "val_freq": 10,
        "tau": 0.01,
        "lambda_": 0.009210340371976182,
        "batch_size": 64,
        "replay_memory_capacity": 1000,
        "prefill_memory": true,
        "random_actions": false,
        "save_best_graph": true
    },
    "env": {
        "n_cells_x": 3,
        "n_cells_y": 3
    },
    "subgraphs": {
        "angles": [
            0,
            30,
            45,
            60,
            90,
            120,
            135,
            150,
            180
        ],
        "lengths": [
            1
        ]
    },
    "train": {
        "num_episodes": 500
    }
}